%YAML 1.1
%TAG !u! tag:unity3d.com,2011:
--- !u!114 &11400000
MonoBehaviour:
  m_ObjectHideFlags: 0
  m_CorrespondingSourceObject: {fileID: 0}
  m_PrefabInstance: {fileID: 0}
  m_PrefabAsset: {fileID: 0}
  m_GameObject: {fileID: 0}
  m_Enabled: 1
  m_EditorHideFlags: 0
  m_Script: {fileID: 11500000, guid: 5a33e23a49fd21244acd7f3d37ee1dc8, type: 3}
  m_Name: CapsulePlayerControllerSettingsPreset1 1
  m_EditorClassIdentifier: 
  RotationSpeed: 360
  DirectionalSpeed: 3
  DirectionalSprintSpeed: 5
  ForwardKey: 37
  BackwardKey: 33
  TurnLeftKey: 15
  TurnRightKey: 18
  SprintKey: 51
  InteractionKey: 19
